[
  {
    "TRIP_NO": "CF11180103",
    "VESSEL_CODE": "PCF30",
    "VESSEL_NAME": "BUNGA KELANA 10",
    "PDPR": null,
    "CREATED_BY": "ZSUNISAK",
    "MAT_TYPE": "CRD",
    "ACTUAL_ETA_FROM": "2018-01-10T00:00:00",
    "ACTUAL_ETA_TO": "2018-01-10T00:00:00",
    "SHOW_ACTUAL_ETA": "10/Jan/2018 - 10/Jan/2018",
    "GT_C": "Chevron GTC",
    "INCOTERMS": "CFR",
    "CRUDE_NAMES": "PATTANI",
    "DISCHARGE_LAYCAN_FROM": "2018-01-11T00:00:00",
    "DISCHARGE_LAYCAN_TO": "2018-01-12T00:00:00",
    "LOADING_DATE_FROM": "2018-01-05T00:00:00",
    "LOADING_DATE_TO": "2018-01-06T00:00:00",
    "SHOW_DISCHARGE_LAYCAN": "11/Jan/2018 - 12/Jan/2018",
    "SHOW_LOADING_LAYCAN": "05/Jan/2018 - 06/Jan/2018",
    "SUPPLIER_MAT_CODE": "13",
    "SUPPLIER_MAT_NAME": "PTT Public Company Limited",
    "SUPPLIER_CODE": null,
    "SUPPLIER_NAME": null,
    "BROKER_CODE": null,
    "BROKER_NAME": null,
    "CIP_MATERIALS": [
        {
            "TRIP_NO": "CF11180103",
            "INCOTERMS": "CFR",
            "MET_NUM": "YPAT",
            "MET_NAME": "PATTANI",
            "GT_C": "Chevron GTC",
            "BL_DATE": "2018-01-06T00:00:00",
            "DISCHARGE_LAYCAN_FROM": "2018-01-11T00:00:00",
            "DISCHARGE_LAYCAN_TO": "2018-01-12T00:00:00",
            "LOADING_DATE_FROM": "2018-01-05T00:00:00",
            "LOADING_DATE_TO": "2018-01-06T00:00:00",
            "BL_STATUS": "Yes",
            "SUPPLIER": "13",
            "SUPPLIER_NAME": "PTT Public Company Limited"
        }
    ],
    "CIP_FREIGHT": null,
    "LAYTIME": null,
    "DEMURRAGE": null
  }
]
