<svg 
 xmlns="http://www.w3.org/2000/svg"
 xmlns:xlink="http://www.w3.org/1999/xlink"
 width="23px" height="23px">
<path fill-rule="evenodd"  fill="rgb(174, 177, 193)"
 d="M13.621,11.500 L21.753,19.632 C22.339,20.217 22.339,21.167 21.753,21.753 C21.167,22.339 20.218,22.339 19.632,21.753 L1.247,3.368 C0.661,2.782 0.661,1.832 1.247,1.247 C1.833,0.661 2.783,0.661 3.368,1.247 L11.500,9.379 L19.632,1.247 C20.218,0.661 21.167,0.661 21.753,1.247 C22.339,1.832 22.339,2.782 21.753,3.368 L13.621,11.500 ZM7.379,13.500 L9.500,15.621 L3.368,21.753 C2.783,22.339 1.833,22.339 1.247,21.753 C0.661,21.167 0.661,20.217 1.247,19.632 L7.379,13.500 Z"/>
</svg>