{
  "DDA_ROW_ID": "201711301220020442845",
  "DDA_FORM_ID": "DAF-1711-0058",
  "DDA_FORM_TYPE": null,
  "DDA_USER_GROUP": "CMCS",
  "DDA_DOC_DATE": "2017-11-30T04:07:44",
  "DDA_FOR_COMPANY": "1100",
  "DDA_TYPE_OF_TRANSECTION": "Purchase",
  "DDA_INCOTERM": "CFR",
  "DDA_DEMURAGE_TYPE": "Paid",
  "DDA_REF_DOC_NO": null,
  "DDA_COUNTERPARTY_TYPE": "Supplier as charterer",
  "DDA_SHIP_OWNER": null,
  "DDA_BROKER": null,
  "DDA_SUPPLIER": "1000083",
  "DDA_CUSTOMER": null,
  "DDA_GT_C": "BP CFR 2007",
  "DDA_LAYTIME_CONTRACT_HRS": 24.0,
  "DDA_LAYTIME_CONTRACT_TEXT": "1 Days 0 Hrs 0 Mins ",
  "DDA_VESSEL": "1000000320",
  "DDA_CONTRACT_DATE": "2017-11-29T17:00:00",
  "DDA_CURRENCY_UNIT": "USD",
  "DDA_AGREED_LOADING_LAYCAN_FROM": "2017-12-06T17:00:00",
  "DDA_AGREED_LOADING_LAYCAN_TO": "2017-12-08T17:00:00",
  "DDA_DEMURAGE_RATE": 15000.0,
  "DDA_AGREED_DC_LAYCAN_FROM": "2017-12-07T17:00:00",
  "DDA_AGREED_DC_LAYCAN_TO": "2017-12-09T17:00:00",
  "DDA_SAILING_ROUTE": "test route",
  "DDA_TRT_ORIGIN_CLAIM_HRS": 64.3833,
  "DDA_TRT_ORIGIN_CLAIM_TIME_TEXT": "2 Days 16 Hrs 22 Mins ",
  "DDA_TRT_TOP_REVIEWED_HRS": 58.3833,
  "DDA_TRT_TOP_REVIEWED_TIME_TEXT": "2 Days 10 Hrs 22 Mins ",
  "DDA_TRT_SETTLED_HRS": 58.3833,
  "DDA_TRT_SETTLED_TIME_TEXT": "2 Days 10 Hrs 22 Mins ",
  "DDA_TRT_SAVING_HRS": 6.0,
  "DDA_TRT_SAVING_TIME_TEXT": "0 Days 6 Hrs 0 Mins ",
  "DDA_TDT_ORIGIN_CLAIM_HRS": 0.0,
  "DDA_TDT_ORIGIN_CLAIM_TIME_TEXT": "0 Days 0 Hrs 0 Mins ",
  "DDA_TDT_TOP_REVIEWED_HRS": 9.0667,
  "DDA_TDT_TOP_REVIEWED_TIME_TEXT": "0 Days 9 Hrs 4 Mins ",
  "DDA_TDT_SETTLED_HRS": 9.0667,
  "DDA_TDT_SETTLED_TIME_TEXT": "0 Days 9 Hrs 4 Mins ",
  "DDA_TDT_SAVING_HRS": 2.7667,
  "DDA_TDT_SAVING_TIME_TEXT": "0 Days 2 Hrs 46 Mins ",
  "DDA_NTS_ORIGIN_CLAIM_HRS": 64.3833,
  "DDA_NTS_ORIGIN_CLAIM_TIME_TEXT": "2 Days 16 Hrs 22 Mins ",
  "DDA_NTS_TOP_REVIEWED_HRS": 49.3166,
  "DDA_NTS_TOP_REVIEWED_TIME_TEXT": "2 Days 1 Hrs 18 Mins ",
  "DDA_NTS_SETTLED_HRS": 49.3166,
  "DDA_NTS_SETTLED_TIME_TEXT": "2 Days 1 Hrs 18 Mins ",
  "DDA_NTS_SAVING_HRS": 3.2333,
  "DDA_NTS_SAVING_TIME_TEXT": "0 Days 3 Hrs 13 Mins ",
  "DDA_LY_ORIGIN_CLAIM_HRS": 24.0,
  "DDA_LY_ORIGIN_CLAIM_TIME_TEXT": "1 Days 0 Hrs 0 Mins ",
  "DDA_LY_TOP_REVIEWED_HRS": 24.0,
  "DDA_LY_TOP_REVIEWED_TIME_TEXT": "1 Days 0 Hrs 0 Mins ",
  "DDA_LY_SETTLED_HRS": 24.0,
  "DDA_LY_SETTLED_TIME_TEXT": "1 Days 0 Hrs 0 Mins ",
  "DDA_LY_SAVING_HRS": 24.0,
  "DDA_LY_SAVING_TIME_TEXT": "1 Days 0 Hrs 0 Mins ",
  "DDA_TOD_ORIGIN_CLAIM_HRS": 40.3833,
  "DDA_TOD_ORIGIN_CLAIM_TIME_TEXT": "1 Days 16 Hrs 22 Mins ",
  "DDA_TOD_TOP_REVIEWED_HRS": 25.3166,
  "DDA_TOD_TOP_REVIEWED_TIME_TEXT": "1 Days 1 Hrs 18 Mins ",
  "DDA_TOD_SETTLED_HRS": 25.3166,
  "DDA_TOD_SETTLED_TIME_TEXT": "1 Days 1 Hrs 18 Mins ",
  "DDA_TOD_SAVING_HRS": 20.7667,
  "DDA_TOD_SAVING_TIME_TEXT": "0 Days 20 Hrs 46 Mins ",
  "DDA_IS_ADDRESS_COMMISSION": "Y",
  "DDA_ADDRESS_COMMISSION_PERCEN": 10.0,
  "DDA_IS_BROKER_COMMISSION": "Y",
  "DDA_BROKER_COMMISSION_PERCEN": 15.0,
  "DDA_IS_SHARING_TO_TOP": "N",
  "DDA_SHARING_TO_TOP_PERCEN": null,
  "DDA_DECIMAL": 7.0,
  "DDA_GD_ORIGIN_CLAIM_VALUE": null,
  "DDA_GD_TOP_REVIEWED_VALUE": null,
  "DDA_GD_SETTLED_VALUE": null,
  "DDA_GD_SAVING_VALUE": null,
  "DDA_AC_ORIGIN_CLAIM_VALUE": null,
  "DDA_AC_TOP_REVIEWED_VALUE": null,
  "DDA_AC_SETTLED_VALUE": null,
  "DDA_AC_SAVING_VALUE": null,
  "DDA_STD_ORIGIN_CLAIM_VALUE": null,
  "DDA_STD_TOP_REVIEWED_VALUE": null,
  "DDA_STD_SETTLED_VALUE": null,
  "DDA_STD_SAVING_VALUE": null,
  "DDA_DST_ORIGIN_CLAIM_VALUE": null,
  "DDA_DST_TOP_REVIEWED_VALUE": null,
  "DDA_DST_SETTLED_VALUE": null,
  "DDA_DST_SAVING_VALUE": null,
  "DDA_ND_ORIGIN_CLAIM_VALUE": null,
  "DDA_ND_TOP_REVIEWED_VALUE": null,
  "DDA_ND_SETTLED_VALUE": null,
  "DDA_ND_SAVING_VALUE": null,
  "DDA_EXPLANATION": null,
  "DDA_TIME_ON_DEM_TEXT": null,
  "DDA_TIME_ON_DEM_HRS": null,
  "DDA_NET_PAYMENT_DEM_VALUE": null,
  "DDA_BROKER_COMMISSION_VALUE": null,
  "DDA_EXCHANGE_RATE": null,
  "DDA_STATUS": "DRAFT",
  "DDA_CREATED": "2017-11-30T12:20:04.001183",
  "DDA_CREATED_BY": "SUKANYA",
  "DDA_UPDATED": "2017-11-30T12:21:47.298262",
  "DDA_UPDATED_BY": "SUKANYA",
  "DDA_AGREED_LAYCAN_FROM": "2017-12-08T17:00:00",
  "DDA_AGREED_LAYCAN_TO": "2017-12-10T17:00:00",
  "DDA_MATERIAL_TYPE": "Crude",
  "DDA_REASON": null,
  "DAF_ATTACH_FILE": [],
  "MT_INCOTERMS": null,
  "MT_VENDOR": null,
  "MT_VENDOR1": null,
  "MT_CUST": null,
  "MT_VEHICLE": null,
  "DAF_MATERIAL": [{
    "DMT_ROW_ID": "00000000000023",
    "DMT_FK_DAF_DATA": "201711301220020442845",
    "DMT_MET_NUM": "YBIT40",
    "DMT_BL_DATE": "2017-11-29T17:00:00",
    "DMT_CREATED": "2017-11-30T05:20:04.001",
    "DMT_CREATED_BY": "SUKANYA",
    "DMT_UPDATED": "2017-11-30T12:21:47.298262",
    "DMT_UPDATED_BY": "SUKANYA",
    "MT_MATERIALS": null,
    "DAF_DATA": null
  }, {
    "DMT_ROW_ID": "00000000000024",
    "DMT_FK_DAF_DATA": "201711301220020442845",
    "DMT_MET_NUM": "YBSEX",
    "DMT_BL_DATE": "2017-11-29T17:00:00",
    "DMT_CREATED": "2017-11-30T05:20:04.001",
    "DMT_CREATED_BY": "SUKANYA",
    "DMT_UPDATED": "2017-11-30T12:21:47.298262",
    "DMT_UPDATED_BY": "SUKANYA",
    "MT_MATERIALS": null,
    "DAF_DATA": null
  }],
  "DAF_PORT": [{
    "DPT_ROW_ID": "00000000000022",
    "DPT_FK_DAF_DATA": "201711301220020442845",
    "DPT_TYPE": "load",
    "DPT_LOAD_PORT": 7.0,
    "DPT_RT_T_START_ACTIVITY": "NOR+6",
    "DPT_RT_T_STOP_ACTIVITY": "hose disconnect",
    "DPT_RT_ORIGIN_CLAIM_T_START": "2017-10-31T17:01:00",
    "DPT_RT_ORIGIN_CLAIM_T_STOP": "2017-11-03T09:24:00",
    "DPT_RT_ORIGIN_CLAIM_T_HRS": 64.3833,
    "DPT_RT_ORIGIN_CLAIM_T_TEXT": "2 Days 16 Hrs 23 Mins ",
    "DPT_RT_TOP_REVIEWED_T_START": "2017-10-31T23:01:00",
    "DPT_RT_TOP_REVIEWED_T_STOP": "2017-11-03T09:24:00",
    "DPT_RT_TOP_REVIEWED_T_HRS": 58.3833,
    "DPT_RT_TOP_REVIEWED_T_TEXT": "2 Days 10 Hrs 23 Mins ",
    "DPT_RT_SETTLED_T_START": "2017-10-31T23:01:00",
    "DPT_RT_SETTLED_T_STOP": "2017-11-03T09:24:00",
    "DPT_RT_SETTLED_T_HRS": 58.3833,
    "DPT_RT_SETTLED_T_TEXT": "2 Days 10 Hrs 23 Mins ",
    "DPT_RT_SAVING_T_HRS": 6.0,
    "DPT_RT_SAVING_T_TEXT": "0 Days 6 Hrs 0 Mins ",
    "DPT_D_OWNER_DEDUCTION_T_HRS": 0.0,
    "DPT_D_OWNER_DEDUCTION_T_TEXT": "0 Days 0 Hrs 0 Mins ",
    "DPT_D_TOP_REVIEWED_T_HRS": 9.0667,
    "DPT_D_TOP_REVIEWED_T_TEXT": "0 Days 9 Hrs 4 Mins ",
    "DPT_D_SETTLED_T_HRS": 9.0667,
    "DPT_D_SETTLED_T_TEXT": "0 Days 9 Hrs 4 Mins ",
    "DPT_D_SAVING_T_HRS": 2.7667,
    "DPT_D_SAVING_T_TEXT": "0 Days 2 Hrs 46 Mins ",
    "DPT_NTS_CLAIM_T_HRS": 64.3833,
    "DPT_NTS_CLAIM_T_TEXT": "2 Days 16 Hrs 22 Mins ",
    "DPT_NTS_TOP_REVIEWED_T_HRS": 49.3166,
    "DPT_NTS_TOP_REVIEWED_T_TEXT": "2 Days 1 Hrs 18 Mins ",
    "DPT_NTS_SETTLED_T_HRS": 49.3166,
    "DPT_NTS_SETTLED_T_TEXT": "2 Days 1 Hrs 18 Mins ",
    "DPT_NTS_SAVING_T_HRS": 3.2333,
    "DPT_NTS_SAVING_T_TEXT": "0 Days 3 Hrs 13 Mins ",
    "DPT_CREATED": "2017-11-30T05:20:04.001",
    "DPT_CREATED_BY": "SUKANYA",
    "DPT_UPDATED": "2017-11-30T12:21:47.298262",
    "DPT_UPDATED_BY": "SUKANYA",
    "DPT_RT_SAVING_T_START_HRS": 6.0,
    "DPT_RT_SAVING_T_START_TEXT": "0 Days 6 Hrs 0 Mins ",
    "DPT_RT_SAVING_T_STOP_HRS": 0.0,
    "DPT_RT_SAVING_T_STOP_TEXT": "0 Days 0 Hrs 0 Mins ",
    "DAF_DATA": null,
    "MT_PORT": null,
    "DAF_DEDUCTION_ACTIVITY": [{
      "DDD_ROW_ID": "00000000000004",
      "DDD_FK_DAF_PORT": "00000000000022",
      "DDD_ACTIVITY": "Deduct Shifting",
      "DDD_OWNER_DEDUCTION_T_START": "2017-11-29T17:00:00",
      "DDD_OWNER_DEDUCTION_T_STOP": "2017-11-29T17:00:00",
      "DDD_OWNER_DEDUCTION_T_HRS": null,
      "DDD_OWNER_DEDUCTION_T_TEXT": "0 Days 0 Hrs 0 Mins ",
      "DDD_TOP_REVIEWED_T_START": "2017-11-02T05:48:00",
      "DDD_TOP_REVIEWED_T_STOP": "2017-11-02T12:06:00",
      "DDD_TOP_REVIEWED_T_HRS": 6.30,
      "DDD_TOP_REVIEWED_T_TEXT": "0 Days 6 Hrs 18 Mins ",
      "DDD_SETTLED_T_START": "2017-11-02T05:48:00",
      "DDD_SETTLED_T_STOP": "2017-11-02T12:06:00",
      "DDD_SETTLED_T_HRS": 6.30,
      "DDD_SETTLED_T_TEXT": "0 Days 6 Hrs 18 Mins ",
      "DDD_SAVING_T_START": null,
      "DDD_SAVING_T_STOP": null,
      "DDD_SAVING_T_HRS": null,
      "DDD_SAVING_T_TEXT": "0 Days 0 Hrs 0 Mins ",
      "DDD_CREATED": "2017-11-30T05:20:04.001",
      "DDD_CREATED_BY": "SUKANYA",
      "DDD_UPDATED": "2017-11-30T12:21:47.298262",
      "DDD_UPDATED_BY": "SUKANYA",
      "DDD_TYPE": "interval",
      "DAF_PORT": null
    }, {
      "DDD_ROW_ID": "00000000000005",
      "DDD_FK_DAF_PORT": "00000000000022",
      "DDD_ACTIVITY": "DEDUCT internal stipping vessel's tanks into SL-P",
      "DDD_OWNER_DEDUCTION_T_START": null,
      "DDD_OWNER_DEDUCTION_T_STOP": null,
      "DDD_OWNER_DEDUCTION_T_HRS": 0.0,
      "DDD_OWNER_DEDUCTION_T_TEXT": "0 Days 0 Hrs 0 Mins ",
      "DDD_TOP_REVIEWED_T_START": "2017-11-03T05:00:00",
      "DDD_TOP_REVIEWED_T_STOP": "2017-11-03T07:00:00",
      "DDD_TOP_REVIEWED_T_HRS": 2.0,
      "DDD_TOP_REVIEWED_T_TEXT": "0 Days 2 Hrs 0 Mins ",
      "DDD_SETTLED_T_START": "2017-11-03T05:00:00",
      "DDD_SETTLED_T_STOP": "2017-11-03T07:00:00",
      "DDD_SETTLED_T_HRS": 2.0,
      "DDD_SETTLED_T_TEXT": "0 Days 2 Hrs 0 Mins ",
      "DDD_SAVING_T_START": null,
      "DDD_SAVING_T_STOP": null,
      "DDD_SAVING_T_HRS": 2.0,
      "DDD_SAVING_T_TEXT": "0 Days 2 Hrs 0 Mins ",
      "DDD_CREATED": "2017-11-30T05:20:04.001",
      "DDD_CREATED_BY": "SUKANYA",
      "DDD_UPDATED": "2017-11-30T12:21:47.298262",
      "DDD_UPDATED_BY": "SUKANYA",
      "DDD_TYPE": "interval",
      "DAF_PORT": null
    }, {
      "DDD_ROW_ID": "00000000000006",
      "DDD_FK_DAF_PORT": "00000000000022",
      "DDD_ACTIVITY": "DEDUCT Average discharging pressure rate",
      "DDD_OWNER_DEDUCTION_T_START": null,
      "DDD_OWNER_DEDUCTION_T_STOP": null,
      "DDD_OWNER_DEDUCTION_T_HRS": 0.0,
      "DDD_OWNER_DEDUCTION_T_TEXT": null,
      "DDD_TOP_REVIEWED_T_START": null,
      "DDD_TOP_REVIEWED_T_STOP": null,
      "DDD_TOP_REVIEWED_T_HRS": 0.7667,
      "DDD_TOP_REVIEWED_T_TEXT": "0 Days 0 Hrs 46 Mins",
      "DDD_SETTLED_T_START": null,
      "DDD_SETTLED_T_STOP": null,
      "DDD_SETTLED_T_HRS": 0.7667,
      "DDD_SETTLED_T_TEXT": "0 Days 0 Hrs 46 Mins",
      "DDD_SAVING_T_START": null,
      "DDD_SAVING_T_STOP": null,
      "DDD_SAVING_T_HRS": 0.7667,
      "DDD_SAVING_T_TEXT": "0 Days 0 Hrs 46 Mins ",
      "DDD_CREATED": "2017-11-30T05:20:04.001",
      "DDD_CREATED_BY": "SUKANYA",
      "DDD_UPDATED": "2017-11-30T12:21:47.298262",
      "DDD_UPDATED_BY": "SUKANYA",
      "DDD_TYPE": "fixed",
      "DAF_PORT": null
    }]
  }],
  "IS_DISABLED": false,
  "IS_DISABLED_NOTE": false,
  "Buttons": [{
    "name": "SAVE DRAFT",
    "page_url": null,
    "call_xml": null
  }, {
    "name": "SUBMIT",
    "page_url": null,
    "call_xml": null
  }, {
    "name": "CANCEL",
    "page_url": null,
    "call_xml": null
  }]
}
