{
  "REQ_TRAN_ID": "30223d379275470690e0e9d10499e8d0",
  "TRAN_ID": "201804181121040624252",
  "USER_GROUP": null,
  "CDA_REQUEST_BY": "",
  "CDA_ROW_ID": "201804181121040624252",
  "CDA_FORM_ID": "CDS-1804-0001",
  "CDA_DOC_DATE": "2018-04-11T00:00:00",
  "CDA_TPC_PLAN": "2018-05-01T00:00:00",
  "CDA_SALE_TYPE": null,
  "CDA_SALE_METHOD": null,
  "CDA_OPTIMIZATION_SALE": 1.0,
  "CDA_OPTIMIZATION_PURCHASE": 2.0,
  "CDA_BRIEF": null,
  "CDA_REASON": "-",
  "CDA_NOTE": null,
  "CDA_STATUS": "DRAFT",
  "CDA_CREATED": "2018-04-18T11:21:05.916614",
  "CDA_CREATED_BY": "SIRIPHAT",
  "CDA_UPDATED": "2018-04-18T11:21:05.916614",
  "CDA_UPDATED_BY": "SIRIPHAT",
  "CDS_ATTACH_FILE": [],
  "CDS_BIDDING_ITEMS": [],
  "CDS_CRUDE_PURCHASE_DETAIL": [],
  "CDS_OPTIMIZATION_DETAIL": [],
  "CDS_PROPOSAL_ITEMS": []
}

-----------------------------------------------------------------------------

{
  "REQ_TRAN_ID": "30223d379275470690e0e9d10499e8d0",
  "TRAN_ID": "201804181121040624252",
  "USER_GROUP": null,
  "CDA_REQUEST_BY": "",
  "CDA_ROW_ID": "201804181121040624252",
  "CDA_FORM_ID": "CDS-1804-0001",
  "CDA_DOC_DATE": "2018-04-11T00:00:00",
  "CDA_TPC_PLAN": "2018-05-01T00:00:00",
  "CDA_SALE_TYPE": null,
  "CDA_SALE_METHOD": null,
  "CDA_OPTIMIZATION_SALE": 1.0,
  "CDA_OPTIMIZATION_PURCHASE": 2.0,
  "CDA_BRIEF": null,
  "CDA_REASON": "-",
  "CDA_NOTE": null,
  "CDA_STATUS": "DRAFT",
  "CDA_CREATED": "2018-04-18T11:21:05.916614",
  "CDA_CREATED_BY": "SIRIPHAT",
  "CDA_UPDATED": "2018-04-18T11:21:05.916614",
  "CDA_UPDATED_BY": "SIRIPHAT",
  "CDS_ATTACH_FILE": [],
  "CDS_BIDDING_ITEMS": [],
  "CDS_CRUDE_PURCHASE_DETAIL": [],
  "CDS_OPTIMIZATION_DETAIL": [],
  "CDS_PROPOSAL_ITEMS": []
}

-----------------------------------------------------------------------------

{
  "REQ_TRAN_ID": "30223d379275470690e0e9d10499e8d0",
  "TRAN_ID": "201804181121040624252",
  "USER_GROUP": null,
  "CDA_REQUEST_BY": "",
  "CDA_ROW_ID": "201804181121040624252",
  "CDA_FORM_ID": "CDS-1804-0001",
  "CDA_DOC_DATE": "2018-04-11T00:00:00",
  "CDA_TPC_PLAN": "2018-05-01T00:00:00",
  "CDA_SALE_TYPE": null,
  "CDA_SALE_METHOD": null,
  "CDA_OPTIMIZATION_SALE": 1.0,
  "CDA_OPTIMIZATION_PURCHASE": 2.0,
  "CDA_BRIEF": null,
  "CDA_REASON": "-",
  "CDA_NOTE": null,
  "CDA_STATUS": "DRAFT",
  "CDA_CREATED": "2018-04-18T11:21:05.916614",
  "CDA_CREATED_BY": "SIRIPHAT",
  "CDA_UPDATED": "2018-04-18T11:21:05.916614",
  "CDA_UPDATED_BY": "SIRIPHAT",
  "CDS_ATTACH_FILE": [],
  "CDS_BIDDING_ITEMS": [],
  "CDS_CRUDE_PURCHASE_DETAIL": [],
  "CDS_OPTIMIZATION_DETAIL": [],
  "CDS_PROPOSAL_ITEMS": []
}

-----------------------------------------------------------------------------

{
  "REQ_TRAN_ID": "30223d379275470690e0e9d10499e8d0",
  "TRAN_ID": "201804181121040624252",
  "USER_GROUP": null,
  "CDA_REQUEST_BY": "",
  "CDA_ROW_ID": "201804181121040624252",
  "CDA_FORM_ID": "CDS-1804-0001",
  "CDA_DOC_DATE": "2018-04-11T00:00:00",
  "CDA_TPC_PLAN": "2018-05-01T00:00:00",
  "CDA_SALE_TYPE": null,
  "CDA_SALE_METHOD": null,
  "CDA_OPTIMIZATION_SALE": 1.0,
  "CDA_OPTIMIZATION_PURCHASE": 2.0,
  "CDA_BRIEF": null,
  "CDA_REASON": "-",
  "CDA_NOTE": null,
  "CDA_STATUS": "DRAFT",
  "CDA_CREATED": "2018-04-18T11:21:05.916614",
  "CDA_CREATED_BY": "SIRIPHAT",
  "CDA_UPDATED": "2018-04-18T11:21:05.916614",
  "CDA_UPDATED_BY": "SIRIPHAT",
  "CDS_ATTACH_FILE": [],
  "CDS_BIDDING_ITEMS": [],
  "CDS_CRUDE_PURCHASE_DETAIL": [],
  "CDS_OPTIMIZATION_DETAIL": [],
  "CDS_PROPOSAL_ITEMS": []
}

-----------------------------------------------------------------------------

{
  "REQ_TRAN_ID": "30223d379275470690e0e9d10499e8d0",
  "TRAN_ID": "201804181121040624252",
  "USER_GROUP": null,
  "CDA_REQUEST_BY": "",
  "CDA_ROW_ID": "201804181121040624252",
  "CDA_FORM_ID": "CDS-1804-0001",
  "CDA_DOC_DATE": "2018-04-11T00:00:00",
  "CDA_TPC_PLAN": "2018-05-01T00:00:00",
  "CDA_SALE_TYPE": null,
  "CDA_SALE_METHOD": null,
  "CDA_OPTIMIZATION_SALE": 1.0,
  "CDA_OPTIMIZATION_PURCHASE": 2.0,
  "CDA_BRIEF": null,
  "CDA_REASON": "-",
  "CDA_NOTE": null,
  "CDA_STATUS": "DRAFT",
  "CDA_CREATED": "2018-04-18T11:21:05.916614",
  "CDA_CREATED_BY": "SIRIPHAT",
  "CDA_UPDATED": "2018-04-18T11:21:05.916614",
  "CDA_UPDATED_BY": "SIRIPHAT",
  "CDS_ATTACH_FILE": [],
  "CDS_BIDDING_ITEMS": [],
  "CDS_CRUDE_PURCHASE_DETAIL": [],
  "CDS_OPTIMIZATION_DETAIL": [],
  "CDS_PROPOSAL_ITEMS": []
}

-----------------------------------------------------------------------------

